simulation/qsim/Lab5.msim.vcd
$comment
	File created using the following command:
		vcd file Lab5.msim.vcd -direction
$end
$date
	Wed Nov 01 23:47:20 2023
$end
$version
	ModelSim Version 10.5b
$end
$timescale
	1ps
$end

$scope module Lab5_vlg_vec_tst $end
$var reg 1 ! cin $end
$var reg 4 " x [3:0] $end
$var reg 4 # y [3:0] $end
$var wire 1 $ cout $end
$var wire 1 % sum [3] $end
$var wire 1 & sum [2] $end
$var wire 1 ' sum [1] $end
$var wire 1 ( sum [0] $end

$scope module i1 $end
$var wire 1 ) gnd $end
$var wire 1 * vcc $end
$var wire 1 + unknown $end
$var tri1 1 , devclrn $end
$var tri1 1 - devpor $end
$var tri1 1 . devoe $end
$var wire 1 / ~QUARTUS_CREATED_GND~I_combout $end
$var wire 1 0 ~QUARTUS_CREATED_UNVM~~busy $end
$var wire 1 1 ~QUARTUS_CREATED_ADC1~~eoc $end
$var wire 1 2 ~QUARTUS_CREATED_ADC2~~eoc $end
$var wire 1 3 sum[0]~output_o $end
$var wire 1 4 sum[1]~output_o $end
$var wire 1 5 sum[2]~output_o $end
$var wire 1 6 sum[3]~output_o $end
$var wire 1 7 cout~output_o $end
$var wire 1 8 x[0]~input_o $end
$var wire 1 9 y[0]~input_o $end
$var wire 1 : cin~input_o $end
$var wire 1 ; Add0~1_cout $end
$var wire 1 < Add0~2_combout $end
$var wire 1 = x[1]~input_o $end
$var wire 1 > y[1]~input_o $end
$var wire 1 ? Add0~3 $end
$var wire 1 @ Add0~4_combout $end
$var wire 1 A x[3]~input_o $end
$var wire 1 B y[3]~input_o $end
$var wire 1 C x[2]~input_o $end
$var wire 1 D y[2]~input_o $end
$var wire 1 E Add0~5 $end
$var wire 1 F Add0~7 $end
$var wire 1 G Add0~9 $end
$var wire 1 H Add0~10_combout $end
$var wire 1 I Add0~8_combout $end
$var wire 1 J Add0~6_combout $end
$var wire 1 K sum~0_combout $end
$var wire 1 L sum~1_combout $end
$var wire 1 M sum~2_combout $end
$var wire 1 N LessThan0~0_combout $end
$upscope $end
$upscope $end
$enddefinitions $end
#0
$dumpvars
0!
b0 "
b0 #
0$
0(
0'
0&
0%
0)
1*
x+
1,
1-
1.
0/
z0
z1
z2
03
04
05
06
07
08
09
0:
0;
0<
0=
0>
1?
0@
0A
0B
0C
0D
0E
1F
0G
0H
0I
0J
0K
0L
0M
0N
$end
#100000
1!
1:
1;
1<
13
1(
#200000
b1 "
b1 #
0!
0:
18
19
0;
0?
1@
0<
03
0(
1K
14
1'
#300000
1!
1:
1;
1<
13
1(
#400000
b11 "
b11 #
b10 "
b10 #
0!
0:
1=
08
1>
09
0;
1E
1?
1J
0@
0<
03
0(
1L
0K
04
15
1&
0'
#500000
1!
1:
1;
1<
13
1(
#600000
b11 "
b11 #
0!
0:
18
19
0;
0?
1@
0<
03
0(
1K
14
1'
#700000
1!
1:
1;
1<
13
1(
#800000
b111 "
b111 #
b101 "
b101 #
b100 "
b100 #
0!
0:
1C
0=
08
1D
0>
09
0;
0F
0E
1?
1I
0J
0@
0<
03
0(
1M
0L
0K
04
05
16
1%
0&
0'
#900000
1!
1:
1;
1<
13
1(
